ACAA,1.3476890839158626
ACAC,0.7675889503799521
ACAG,0.17374066141192157
ACAT,1.0760748836896605
CCAA,1.2229168160764874
CCAC,0.8699105520156193
CCAG,0.1868278657403737
CCAT,1.1801618030771261
GCAA,0.9622904230505192
GCAC,0.7887442351391297
GCAG,0.16232025014098075
GCAT,0.9315742037595225
TCAA,1.3102461204488212
TCAC,1.033573226814679
TCAG,0.15078047729736085
TCAT,1.4860429451873065
ACGA,1.3476890839158626
ACGC,0.7675889503799521
ACGG,0.17374066141192157
ACGT,1.0760748836896605
CCGA,1.2229168160764874
CCGC,0.8699105520156193
CCGG,0.1868278657403737
CCGT,1.1801618030771261
GCGA,0.9622904230505192
GCGC,0.7887442351391297
GCGG,0.16232025014098075
GCGT,0.9315742037595225
TCGA,1.3102461204488212
TCGC,1.033573226814679
TCGG,0.15078047729736085
TCGT,1.4860429451873065
ACTA,1.3476890839158626
ACTC,0.7675889503799521
ACTG,0.17374066141192157
ACTT,1.0760748836896605
CCTA,1.2229168160764874
CCTC,0.8699105520156193
CCTG,0.1868278657403737
CCTT,1.1801618030771261
GCTA,0.9622904230505192
GCTC,0.7887442351391297
GCTG,0.16232025014098075
GCTT,0.9315742037595225
TCTA,1.3102461204488212
TCTC,1.033573226814679
TCTG,0.15078047729736085
TCTT,1.4860429451873065
ATAA,1.35955361214679
ATAC,0.8902087674721284
ATAG,1.2148297853332606
ATAT,1.6497730647169468
CTAA,0.8560983742769377
CTAC,1.1281144614112728
CTAG,1.354220254094606
CTAT,1.3354207701175413
GTAA,0.7484280681011709
GTAC,0.6275014318022288
GTAG,1.0075576766804406
GTAT,0.9816063786268144
TTAA,1.365447268175042
TTAC,1.334818181622764
TTAG,1.2665347152900122
TTAT,2.5627380253200545
ATCA,1.35955361214679
ATCC,0.8902087674721284
ATCG,1.2148297853332606
ATCT,1.6497730647169468
CTCA,0.8560983742769377
CTCC,1.1281144614112728
CTCG,1.354220254094606
CTCT,1.3354207701175413
GTCA,0.7484280681011709
GTCC,0.6275014318022288
GTCG,1.0075576766804406
GTCT,0.9816063786268144
TTCA,1.365447268175042
TTCC,1.334818181622764
TTCG,1.2665347152900122
TTCT,2.5627380253200545
ATGA,1.35955361214679
ATGC,0.8902087674721284
ATGG,1.2148297853332606
ATGT,1.6497730647169468
CTGA,0.8560983742769377
CTGC,1.1281144614112728
CTGG,1.354220254094606
CTGT,1.3354207701175413
GTGA,0.7484280681011709
GTGC,0.6275014318022288
GTGG,1.0075576766804406
GTGT,0.9816063786268144
TTGA,1.365447268175042
TTGC,1.334818181622764
TTGG,1.2665347152900122
TTGT,2.5627380253200545
